
****************************************************************************
SSH key generation and updation in windows server for the user in linux
a) Login to destination server.
b) Create SSH folder if it does not exists.

mkdir ~/.ssh
chmod 0700 ~/.ssh
c) Copy and paste the Public Key generate above in Point (1).

vim ~/.ssh/authorized_keys
chmod 0644 ~/.ssh/authorized_keys



**********************************************************************

Add user
sudo useradd -s /bin/bash -m -d /home/h  -g root h

sudo passwd test

sudo visudo
	test  ALL=(ALL:ALL) ALL
	
vi /etc/ssh/sshd_config
	PasswordAuthentication yes : default it would be no

Restart ssh
sudo /etc/init.d/ssh restart
***********************************************************************
Update the profile for all the users in linux

Goto te location - 

cd /etc/profile.d

Create a file -
	bash_profile.sh
Update the bash_profile.sh with required values 
***********************************************************************